4 Examples | splithalf package documentation
…
sim_data <- data.frame(participant_number = rep(1:n_participants, each = n_blocks * n_trials),
                       trial_number = rep(1:n_trials, times = n_blocks * n_participants),
                       block_name = rep(c("A","B"), each = n_trials, length.out = n_participants * n_trials * n_blocks),
                       trial_type = rep(c("congruent","incongruent"), length.out = n_participants * n_trials * n_blocks),
                       RT = rnorm(n_participants * n_trials * n_blocks, 500, 200))

4.3 Difference scores

This is by far the most common outcome measure I have come across, so lets start with that.

Our data will be analysed so that we have two ‘bias’ or ‘difference score’ outcomes. So, within each block, we will take the average RT in congruent trials and subtract the average RT in incongruent trials. Calculating the final scores for each participant and for each block separately might look a bit like this

# A tibble: 120 x 5
# Groups:   participant_number, block_name
#   [120]
   participant_num… block_name congruent
              <int> <fct>          <dbl>
 1                1 A               473.
 2                1 B               501.
 3                2 A               498.
 4                2 B               481.
 5                3 A               499.
 6                3 B               546.
 7                4 A               491.
 8                4 B               528.
 9                5 A               454.
10                5 B               525.
# … with 110 more rows, and 2 more variables:
#   incongruent <dbl>, bias <dbl>
…
$estimates
# A tibble: 10,000 x 5
# Groups:   iteration [5,000]
   iteration condition     n splithalf
   <fct>     <fct>     <dbl>     <dbl>
 1 1         A            60   -0.187 
 2 1         B            60    0.0411
 3 2         A            60   -0.101 
 4 2         B            60   -0.0121
 5 3         A            60   -0.142 
 6 3         B            60    0.106 
 7 4         A            60   -0.0342
 8 4         B            60    0.0314
 9 5         A            60   -0.166 
10 5         B            60   -0.0205
# … with 9,990 more rows, and 1 more
#   variable: spearmanbrown <dbl>
…
$estimates
# A tibble: 10,000 x 5
# Groups:   iteration [5,000]
   iteration condition     n splithalf
   <fct>     <fct>     <dbl>     <dbl>
 1 1         A            60   0.0643 
 2 1         B            60   0.00264
 3 2         A            60   0.0629 
 4 2         B            60   0.290  
 5 3         A            60   0.136  
 6 3         B            60   0.0126 
 7 4         A            60  -0.107  
 8 4         B            60   0.0995 
 9 5         A            60  -0.0778 
10 5         B            60  -0.0321 
# … with 9,990 more rows, and 1 more
#   variable: spearmanbrown <dbl>
…
$estimates
# A tibble: 10,000 x 5
   iteration     n var   splithalf
   <fct>     <int> <chr>     <dbl>
 1 1            60 cor1     0.104 
 2 2            60 cor1     0.0624
 3 3            60 cor1     0.215 
 4 4            60 cor1    -0.0489
 5 5            60 cor1     0.0141
 6 6            60 cor1    -0.0284
 7 7            60 cor1     0.0459
 8 8            60 cor1     0.223 
 9 9            60 cor1    -0.0436
10 10           60 cor1     0.125 
# … with 9,990 more rows, and 1 more
#   variable: spearmanbrown <dbl>
…
